{
	"info": {
		"_postman_id": "7a5e7b73-5133-498e-8c03-4c5340017208",
		"name": "Vehicle",
		"schema": "https://schema.getpostman.com/json/collection/v2.1.0/collection.json"
	},
	"item": [
		{
			"name": "Create vehicle geolocation",
			"request": {
				"method": "POST",
				"header": [
					{
						"key": "Content-Type",
						"value": "application/json"
					}
				],
				"body": {
					"mode": "raw",
					"raw": "{\"vehicleName\":\"testname1\",\"coordinates\":{\"latitude\":60.0,\"longitude\":120.0}}"
				},
				"url": {
					"raw": "http://localhost:8085/geolocation",
					"protocol": "http",
					"host": [
						"localhost"
					],
					"port": "8085",
					"path": [
						"geolocation"
					]
				}
			},
			"response": []
		},
		{
			"name": "Get all vehicle geolocations",
			"request": {
				"method": "GET",
				"header": [],
				"body": {},
				"url": {
					"raw": "http://localhost:8085/geolocation",
					"protocol": "http",
					"host": [
						"localhost"
					],
					"port": "8085",
					"path": [
						"geolocation"
					]
				}
			},
			"response": []
		},
		{
			"name": "Get vehicles in area",
			"request": {
				"method": "PUT",
				"header": [
					{
						"key": "Content-Type",
						"value": "application/json"
					}
				],
				"body": {
					"mode": "raw",
					"raw": "{\"northEast\":{\"latitude\":70.0,\"longitude\":145.0},\"southWest\":{\"latitude\":50.0,\"longitude\":110.0}}"
				},
				"url": {
					"raw": "http://localhost:8085/geolocation/in-area",
					"protocol": "http",
					"host": [
						"localhost"
					],
					"port": "8085",
					"path": [
						"geolocation",
						"in-area"
					]
				}
			},
			"response": []
		}
	]
}